-- Merging decision tree log ---
manifest
ADDED from D:\phan mem\AndroiStudio\flutter\.pub-cache\hosted\pub.dartlang.org\package_info-0.4.3+4\android\src\main\AndroidManifest.xml:1:1-3:12
INJECTED from D:\phan mem\AndroiStudio\flutter\.pub-cache\hosted\pub.dartlang.org\package_info-0.4.3+4\android\src\main\AndroidManifest.xml:1:1-3:12
INJECTED from D:\phan mem\AndroiStudio\flutter\.pub-cache\hosted\pub.dartlang.org\package_info-0.4.3+4\android\src\main\AndroidManifest.xml:1:1-3:12
	package
		ADDED from D:\phan mem\AndroiStudio\flutter\.pub-cache\hosted\pub.dartlang.org\package_info-0.4.3+4\android\src\main\AndroidManifest.xml:2:3-43
		INJECTED from D:\phan mem\AndroiStudio\flutter\.pub-cache\hosted\pub.dartlang.org\package_info-0.4.3+4\android\src\main\AndroidManifest.xml
		INJECTED from D:\phan mem\AndroiStudio\flutter\.pub-cache\hosted\pub.dartlang.org\package_info-0.4.3+4\android\src\main\AndroidManifest.xml
	xmlns:android
		ADDED from D:\phan mem\AndroiStudio\flutter\.pub-cache\hosted\pub.dartlang.org\package_info-0.4.3+4\android\src\main\AndroidManifest.xml:1:11-69
uses-sdk
INJECTED from D:\phan mem\AndroiStudio\flutter\.pub-cache\hosted\pub.dartlang.org\package_info-0.4.3+4\android\src\main\AndroidManifest.xml reason: use-sdk injection requested
INJECTED from D:\phan mem\AndroiStudio\flutter\.pub-cache\hosted\pub.dartlang.org\package_info-0.4.3+4\android\src\main\AndroidManifest.xml
INJECTED from D:\phan mem\AndroiStudio\flutter\.pub-cache\hosted\pub.dartlang.org\package_info-0.4.3+4\android\src\main\AndroidManifest.xml
	android:minSdkVersion
		INJECTED from D:\phan mem\AndroiStudio\flutter\.pub-cache\hosted\pub.dartlang.org\package_info-0.4.3+4\android\src\main\AndroidManifest.xml
		ADDED from D:\phan mem\AndroiStudio\flutter\.pub-cache\hosted\pub.dartlang.org\package_info-0.4.3+4\android\src\main\AndroidManifest.xml
		INJECTED from D:\phan mem\AndroiStudio\flutter\.pub-cache\hosted\pub.dartlang.org\package_info-0.4.3+4\android\src\main\AndroidManifest.xml
